data_scraping
…
The difference in standardized speaker scores between men and women is 0.2545061 with a p-value of 0.

## 
##  Welch Two Sample t-test
## 
## data:  dudes$z and girls$z
## t = 6.6928, df = 2293.1, p-value = 2.743e-11
## alternative hypothesis: true difference in means is not equal to 0
## 95 percent confidence interval:
##  0.1799355 0.3290768
## sample estimates:
##   mean of x   mean of y 
##  0.09580675 -0.15869939

## # A tibble: 38 x 3
##    state     n     avg
##    <chr> <int>   <dbl>
##  1 ""        8 -0.124 
##  2 "AL"     31 -0.667 
##  3 "AR"      9 -1.01  
##  4 "AZ"     26 -0.0972
##  5 "CA"    635  0.159 
##  6 "CO"     28 -0.593 
##  7 "CT"      4 -0.882 
##  8 "DC"      4 -0.913 
##  9 "FL"    273  0.159 
## 10 "GA"     37 -0.723 
## #  with 28 more rows
